Exercise-11
…
# Select the 19 specified variables from the dataset
d <- dplyr::select(d, "Species1", "Family1", "Order1", "Beak.Width", "Beak.Depth", "Tarsus.Length", "Wing.Length", "Tail.Length", "Mass", "Habitat", "Migration", "Trophic.Niche", "Min.Latitude", "Trophic.Level", "Max.Latitude", "Centroid.Latitude", "Range.Size", "Beak.Length_Culmen", "Primary.Lifestyle")

# Select quantitative variables
quant_vars <- d %>%
  select_if(is.numeric)

# Select categorical variables
cat_vars <- d %>%
  select_if(is.character)

# Print categorical variables
print(cat_vars)

# A tibble: 11,009 × 7
   Species1 Family1 Order1 Habitat Trophic.Niche Trophic.Level Primary.Lifestyle
   <chr>    <chr>   <chr>  <chr>   <chr>         <chr>         <chr>            
 1 Accipit… Accipi… Accip… Forest  Vertivore     Carnivore     Insessorial      
 2 Accipit… Accipi… Accip… Shrubl… Vertivore     Carnivore     Insessorial      
 3 Accipit… Accipi… Accip… Woodla… Vertivore     Carnivore     Generalist       
 4 Accipit… Accipi… Accip… Forest  Vertivore     Carnivore     Insessorial      
 5 Accipit… Accipi… Accip… Forest  Vertivore     Carnivore     Generalist       
 6 Accipit… Accipi… Accip… Forest  Vertivore     Carnivore     Insessorial      
 7 Accipit… Accipi… Accip… Forest  Vertivore     Carnivore     Insessorial      
 8 Accipit… Accipi… Accip… Forest  Vertivore     Carnivore     Generalist       
 9 Accipit… Accipi… Accip… Forest  Vertivore     Carnivore     Insessorial      
10 Accipit… Accipi… Accip… Woodla… Vertivore     Carnivore     Aerial           
# ℹ 10,999 more rows
…
# Extract residuals
beak_residuals <- residuals(beak_model)
tarsus_residuals <- residuals(tarsus_model)

# Add the residuals as new variables to the AVONET dataset
d <- d %>%
  mutate(Relative_Beak_Length = beak_residuals,
         Relative_Tarsus_Length = tarsus_residuals)

d

# A tibble: 11,009 × 39
   Sequence Species1   Family1 Order1 Avibase.ID1 Total.individuals Female  Male
      <dbl> <chr>      <chr>   <chr>  <chr>                   <dbl>  <dbl> <dbl>
 1     3103 Accipiter… Accipi… Accip… AVIBASE-BB…                 5      2     0
 2     3090 Accipiter… Accipi… Accip… AVIBASE-1A…                10      4     6
 3     3125 Accipiter… Accipi… Accip… AVIBASE-AD…                11      4     5
 4     3116 Accipiter… Accipi… Accip… AVIBASE-68…                 4      4     0
 5     3092 Accipiter… Accipi… Accip… AVIBASE-84…                 8      4     4
 6     3091 Accipiter… Accipi… Accip… AVIBASE-6B…                 1      0     1
 7     3089 Accipiter… Accipi… Accip… AVIBASE-9D…                 6      2     2
 8     3115 Accipiter… Accipi… Accip… AVIBASE-21…                 5      2     3
 9     3130 Accipiter… Accipi… Accip… AVIBASE-32…                 7      1     5
10     3123 Accipiter… Accipi… Accip… AVIBASE-EB…                 5      2     3
# ℹ 10,999 more rows
# ℹ 31 more variables: Unknown <dbl>, Complete.measures <dbl>,
#   Beak.Length_Culmen <dbl>, Beak.Length_Nares <dbl>, Beak.Width <dbl>,
#   Beak.Depth <dbl>, Tarsus.Length <dbl>, Wing.Length <dbl>,
#   Kipps.Distance <dbl>, Secondary1 <dbl>, `Hand-Wing.Index` <dbl>,
#   Tail.Length <dbl>, Mass <dbl>, Mass.Source <chr>, Mass.Refs.Other <chr>,
#   Inference <chr>, Traits.inferred <chr>, Reference.species <chr>, …
…
